module gitlab.com/gocos/reqp

go 1.14

require (
	github.com/golang/protobuf v1.4.3 // indirect
	github.com/pkg/errors v0.9.1
	github.com/ttacon/builder v0.0.0-20170518171403-c099f663e1c2 // indirect
	github.com/ttacon/libphonenumber v1.1.0
)
